\relax 
\@writefile{toc}{\contentsline {section}{\numberline {1}Title:}{1}}
\@writefile{toc}{\contentsline {section}{\numberline {2}Problem Statement:}{1}}
\@writefile{toc}{\contentsline {section}{\numberline {3}Learning objectives:}{1}}
\@writefile{toc}{\contentsline {section}{\numberline {4}Learning Outcomes:}{1}}
\@writefile{toc}{\contentsline {section}{\numberline {5}Theory:}{1}}
\@writefile{lof}{\contentsline {figure}{\numberline {1}{\ignorespaces PaaS Architecture}}{2}}
\newlabel{fig:arch-map}{{1}{2}}
\@writefile{lof}{\contentsline {figure}{\numberline {2}{\ignorespaces Open Shift Architecture}}{3}}
\newlabel{fig:b-map}{{2}{3}}
\@writefile{toc}{\contentsline {section}{\numberline {6}Mathematical Model}{4}}
\@writefile{lof}{\contentsline {figure}{\numberline {3}{\ignorespaces Function Mapping}}{5}}
\newlabel{fig:b-map}{{3}{5}}
\@writefile{toc}{\contentsline {section}{\numberline {7}State Diagram:}{5}}
\@writefile{lof}{\contentsline {figure}{\numberline {4}{\ignorespaces  State Diagram}}{5}}
\newlabel{fig:b-map}{{4}{5}}
\@writefile{toc}{\contentsline {section}{\numberline {8}Conclusion:}{5}}
